#
# A fatal error has been detected by the Java Runtime Environment:
#
#  EXCEPTION_PRIV_INSTRUCTION (0xc0000096) at pc=0x0000000004e3d49b, pid=6300, tid=5812
#
# JRE version: Java(TM) SE Runtime Environment (8.0_25-b18) (build 1.8.0_25-b18)
# Java VM: Java HotSpot(TM) 64-Bit Server VM (25.25-b02 mixed mode windows-amd64 compressed oops)
# Problematic frame:
# J 36130 C1 javax.swing.JComponent.getVerifyInputWhenFocusTarget()Z (5 bytes) @ 0x0000000004e3d49b [0x0000000004e3d3a0+0xfb]
#
# Failed to write core dump. Minidumps are not enabled by default on client versions of Windows
#
# If you would like to submit a bug report, please visit:
#   http://bugreport.sun.com/bugreport/crash.jsp
#

---------------  T H R E A D  ---------------

Current thread (0x0000000019988800):  JavaThread "Editor Parsing Loop (201411181905)" daemon [_thread_in_Java, id=5812, stack(0x0000000023100000,0x0000000023300000)]

siginfo: ExceptionCode=0xc0000096

Registers:
RAX=0x0000000000000000, RBX=0x00000000000004cc, RCX=0x0000000000000000, RDX=0x0000000000000000
RSP=0x00000000232fe9e0, RBP=0x00000000232feca0, RSI=0x000000002367d8b0, RDI=0x0000000000000118
R8 =0x0000000000000047, R9 =0x00000000041478c0, R10=0x0000000000000047, R11=0x00000000232fe1b0
R12=0x0000000000000000, R13=0x00000000232fec40, R14=0x00000000232fecd0, R15=0x0000000019988800
RIP=0x0000000004e3d49b, EFLAGS=0x0000000000010206

Top of Stack: (sp=0x00000000232fe9e0)
0x00000000232fe9e0:   00000000c228ca10 0000000019988800
0x00000000232fe9f0:   00000000000004cc 000000002367d8b0
0x00000000232fea00:   0000000000000000 0000000009ffa140
0x00000000232fea10:   00000000c01e9d70 0000000000000000
0x00000000232fea20:   00000000eba23de0 0000000000000118
0x00000000232fea30:   000000002367d8b0 00000000232feca0
0x00000000232fea40:   0000000019988800 00000000000004cc
0x00000000232fea50:   0000000019988800 00000000c1940ec0
0x00000000232fea60:   000000000000002d 0000000008b1e35c
0x00000000232fea70:   00000000c01e9d70 00000000eba23de0
0x00000000232fea80:   00000000eba22d08 000000006f9a8be0
0x00000000232fea90:   00000000c228ae48 00000000c0000000
0x00000000232feaa0:   00000001000016d0 00000000c0d626e0
0x00000000232feab0:   00000000232feca0 000000000989b56c
0x00000000232feac0:   00000000c1902720 00000000eb2dc0f8
0x00000000232fead0:   00000000eba14bd8 00000000eba14c08 

Instructions: (pc=0x0000000004e3d49b)
0x0000000004e3d47b:   48 b9 00 b3 dc 6f 00 00 00 00 48 ba 25 d4 e3 04
0x0000000004e3d48b:   00 00 00 00 4c 8b c4 48 83 e4 f0 e8 45 b8 c5 6a
0x0000000004e3d49b:   f4 49 ba 9c d4 e3 04 00 00 00 00 41 52 e9 93 9a
0x0000000004e3d4ab:   54 ff f4 f4 f4 ff 00 00 48 8b 34 10 48 ff ff ff 


Register to memory mapping:

RAX=0x0000000000000000 is an unknown value
RBX=0x00000000000004cc is an unknown value
RCX=0x0000000000000000 is an unknown value
RDX=0x0000000000000000 is an unknown value
RSP=0x00000000232fe9e0 is pointing into the stack for thread: 0x0000000019988800
RBP=0x00000000232feca0 is pointing into the stack for thread: 0x0000000019988800
RSI=0x000000002367d8b0 is pointing into metadata
RDI=0x0000000000000118 is an unknown value
R8 =0x0000000000000047 is an unknown value
R9 =0x00000000041478c0 is an unknown value
R10=0x0000000000000047 is an unknown value
R11=0x00000000232fe1b0 is pointing into the stack for thread: 0x0000000019988800
R12=0x0000000000000000 is an unknown value
R13=0x00000000232fec40 is pointing into the stack for thread: 0x0000000019988800
R14=0x00000000232fecd0 is pointing into the stack for thread: 0x0000000019988800
R15=0x0000000019988800 is a thread


Stack: [0x0000000023100000,0x0000000023300000],  sp=0x00000000232fe9e0,  free space=2042k
Native frames: (J=compiled Java code, j=interpreted, Vv=VM code, C=native code)
C  0x0000000004e3d49b


---------------  P R O C E S S  ---------------

Java Threads: ( => current thread )
  0x000000002b76c000 JavaThread "Inactive RequestProcessor thread [Was:JavaSourceTaskFactory/org.netbeans.api.java.source.JavaSourceTaskFactory$1]" daemon [_thread_blocked, id=11796, stack(0x0000000035c00000,0x0000000035e00000)]
  0x000000002b769800 JavaThread "Spellchecker" daemon [_thread_in_Java, id=10828, stack(0x0000000035a00000,0x0000000035c00000)]
  0x000000002b76d800 JavaThread "Inactive RequestProcessor thread [Was:PaletteSwitch/org.netbeans.spi.palette.PaletteSwitch$1]" daemon [_thread_blocked, id=8948, stack(0x00000000353a0000,0x00000000355a0000)]
  0x000000002b769000 JavaThread "Inactive RequestProcessor thread [Was:SelectedNodesScheduler/org.netbeans.modules.parsing.impl.SelectedNodesScheduler$1]" daemon [_thread_blocked, id=12180, stack(0x0000000034c30000,0x0000000034e30000)]
  0x000000002d2a0800 JavaThread "Inactive RequestProcessor thread [Was:org.netbeans.spi.debugger.ui.EditorContextDispatcher$AddRemoveFileListenerInEQThread/org.netbeans.spi.debugger.ui.EditorContextDispatcher$AddRemoveFileListenerInEQThread]" daemon [_thread_blocked, id=10084, stack(0x0000000033b50000,0x0000000033d50000)]
  0x000000002d7b8800 JavaThread "Inactive RequestProcessor thread [Was:AnnotationHolder/org.netbeans.modules.editor.hints.AnnotationHolder$4$2]" daemon [_thread_blocked, id=12036, stack(0x00000000316c0000,0x00000000318c0000)]
  0x000000002d7ba000 JavaThread "Inactive RequestProcessor thread [Was:Refresh Editor Context/org.netbeans.spi.debugger.ui.EditorContextDispatcher$EventFirer]" daemon [_thread_blocked, id=11404, stack(0x00000000312c0000,0x00000000314c0000)]
  0x000000002b76e000 JavaThread "Inactive RequestProcessor thread [Was:org.netbeans.modules.css.visual.CssStylesTCController/org.netbeans.modules.css.visual.CssStylesTCController$1]" daemon [_thread_blocked, id=1656, stack(0x00000000340c0000,0x00000000342c0000)]
  0x0000000028503000 JavaThread "Timer-0" daemon [_thread_blocked, id=6140, stack(0x000000001db20000,0x000000001dd20000)]
  0x000000002e2ff800 JavaThread "RequestProcessor queue manager" daemon [_thread_blocked, id=7156, stack(0x0000000031cc0000,0x0000000031ec0000)]
  0x0000000028503800 JavaThread "GlassFish Status Tasks" daemon [_thread_blocked, id=2636, stack(0x000000002cd80000,0x000000002cf80000)]
  0x0000000028502000 JavaThread "GlassFish Status Tasks" daemon [_thread_blocked, id=5832, stack(0x000000002c980000,0x000000002cb80000)]
  0x0000000028501800 JavaThread "GlassFish Status Tasks" daemon [_thread_blocked, id=9172, stack(0x000000002c580000,0x000000002c780000)]
  0x0000000019992800 JavaThread "TimerQueue" daemon [_thread_blocked, id=8892, stack(0x0000000022100000,0x0000000022300000)]
  0x0000000019991800 JavaThread "Worker-JM" [_thread_blocked, id=8760, stack(0x0000000026090000,0x0000000026290000)]
  0x0000000019991000 JavaThread "Framework Event Dispatcher" daemon [_thread_blocked, id=5492, stack(0x0000000025e90000,0x0000000026090000)]
  0x0000000019990000 JavaThread "Deadlock Detector" [_thread_blocked, id=8924, stack(0x0000000025c90000,0x0000000025e90000)]
  0x000000001998f800 JavaThread "Thread-3" daemon [_thread_blocked, id=7844, stack(0x0000000025890000,0x0000000025a90000)]
  0x000000001998e000 JavaThread "W32 File Monitor" daemon [_thread_in_native, id=8652, stack(0x0000000025690000,0x0000000025890000)]
  0x000000001998b800 JavaThread "File Watcher" daemon [_thread_blocked, id=1172, stack(0x0000000024c30000,0x0000000024e30000)]
  0x0000000019989800 JavaThread "Code Model Parser 0" daemon [_thread_blocked, id=9184, stack(0x0000000023300000,0x0000000023500000)]
=>0x0000000019988800 JavaThread "Editor Parsing Loop (201411181905)" daemon [_thread_in_Java, id=5812, stack(0x0000000023100000,0x0000000023300000)]
  0x0000000019988000 JavaThread "Code Model Parser 1" daemon [_thread_blocked, id=820, stack(0x0000000022f00000,0x0000000023100000)]
  0x0000000019986000 JavaThread "Repository Writing Thread" daemon [_thread_blocked, id=9088, stack(0x0000000022b00000,0x0000000022d00000)]
  0x0000000019984800 JavaThread "State Data Manager" daemon [_thread_blocked, id=5416, stack(0x0000000022700000,0x0000000022900000)]
  0x0000000019984000 JavaThread "Framework Active Thread" [_thread_blocked, id=9132, stack(0x0000000021f00000,0x0000000022100000)]
  0x0000000019bd5000 JavaThread "AWT-EventQueue-0" [_thread_blocked, id=5460, stack(0x000000001f620000,0x000000001f820000)]
  0x0000000019bd4000 JavaThread "AWT-Shutdown" [_thread_blocked, id=8212, stack(0x000000001f220000,0x000000001f420000)]
  0x000000001885d000 JavaThread "AWT-Windows" daemon [_thread_in_native, id=1880, stack(0x000000001f420000,0x000000001f620000)]
  0x0000000019ad3000 JavaThread "Java2D Disposer" daemon [_thread_blocked, id=6956, stack(0x000000001f020000,0x000000001f220000)]
  0x0000000018659000 JavaThread "CLI Requests Server" daemon [_thread_in_native, id=3932, stack(0x000000001e350000,0x000000001e550000)]
  0x00000000198c1800 JavaThread "Active Reference Queue Daemon" daemon [_thread_blocked, id=9200, stack(0x000000001a030000,0x000000001a230000)]
  0x00000000184d6800 JavaThread "Service Thread" daemon [_thread_blocked, id=5940, stack(0x0000000019260000,0x0000000019460000)]
  0x000000001847c800 JavaThread "C1 CompilerThread2" daemon [_thread_blocked, id=7520, stack(0x0000000019060000,0x0000000019260000)]
  0x0000000018479800 JavaThread "C2 CompilerThread1" daemon [_thread_blocked, id=6716, stack(0x0000000018e60000,0x0000000019060000)]
  0x0000000018474000 JavaThread "C2 CompilerThread0" daemon [_thread_blocked, id=1344, stack(0x0000000018c60000,0x0000000018e60000)]
  0x000000001846b000 JavaThread "Attach Listener" daemon [_thread_blocked, id=8732, stack(0x0000000018a60000,0x0000000018c60000)]
  0x0000000018468800 JavaThread "Signal Dispatcher" daemon [_thread_blocked, id=9000, stack(0x0000000018860000,0x0000000018a60000)]
  0x0000000016e04800 JavaThread "Finalizer" daemon [_thread_blocked, id=4280, stack(0x0000000018260000,0x0000000018460000)]
  0x0000000016dfd800 JavaThread "Reference Handler" daemon [_thread_blocked, id=8612, stack(0x0000000018060000,0x0000000018260000)]
  0x000000000426e800 JavaThread "main" [_thread_blocked, id=460, stack(0x0000000000030000,0x0000000000230000)]

Other Threads:
  0x0000000016df8000 VMThread [stack: 0x0000000017e60000,0x0000000018060000] [id=8292]
  0x00000000184e2000 WatcherThread [stack: 0x0000000019460000,0x0000000019660000] [id=9096]

VM state:not at safepoint (normal execution)

VM Mutex/Monitor currently owned by a thread: None

Heap:
 PSYoungGen      total 118272K, used 28314K [0x00000000eab00000, 0x00000000f2f80000, 0x0000000100000000)
  eden space 111616K, 20% used [0x00000000eab00000,0x00000000ec16cb68,0x00000000f1800000)
  from space 6656K, 80% used [0x00000000f1800000,0x00000000f1d39d90,0x00000000f1e80000)
  to   space 7680K, 0% used [0x00000000f2800000,0x00000000f2800000,0x00000000f2f80000)
 ParOldGen       total 236544K, used 212533K [0x00000000c0000000, 0x00000000ce700000, 0x00000000eab00000)
  object space 236544K, 89% used [0x00000000c0000000,0x00000000ccf8d7e0,0x00000000ce700000)
 Metaspace       used 129795K, capacity 144363K, committed 144768K, reserved 1175552K
  class space    used 15002K, capacity 19020K, committed 19072K, reserved 1048576K

Card table byte_map: [0x0000000013700000,0x0000000013910000] byte_map_base: 0x0000000013100000

Marking Bits: (ParMarkBitMap*) 0x000000006ff9d490
 Begin Bits: [0x0000000014270000, 0x0000000015270000)
 End Bits:   [0x0000000015270000, 0x0000000016270000)

Polling page: 0x0000000002210000

CodeCache: size=245760Kb used=111078Kb max_used=111089Kb free=134682Kb
 bounds [0x0000000004340000, 0x000000000b090000, 0x0000000013340000]
 total_blobs=26889 nmethods=25958 adapters=838
 compilation: enabled

Compilation events (10 events):
Event: 498558.092 Thread 0x000000001847c800 36132       3       org.netbeans.modules.php.editor.model.impl.VariousUtils::extractTypeFroVariableBase (8 bytes)
Event: 498558.093 Thread 0x000000001847c800 nmethod 36132 0x000000000b07bad0 code [0x000000000b07bc40, 0x000000000b07be08]
Event: 498558.097 Thread 0x000000001847c800 36133       3       org.netbeans.modules.php.editor.verification.AssignVariableSuggestion$IntroduceFixVisitor::visit (174 bytes)
Event: 498558.153 Thread 0x000000001847c800 nmethod 36133 0x000000000b083190 code [0x000000000b083440, 0x000000000b084d58]
Event: 498562.690 Thread 0x000000001847c800 36134       3       org.tmatesoft.svn.core.wc2.SvnOperationFactory::dispose (28 bytes)
Event: 498562.713 Thread 0x000000001847c800 nmethod 36134 0x0000000004e82ad0 code [0x0000000004e82c60, 0x0000000004e830d8]
Event: 498565.012 Thread 0x0000000018474000 36135       4       javax.swing.DefaultButtonModel::setRollover (50 bytes)
Event: 498565.014 Thread 0x000000001847c800 36136       1       org.netbeans.spi.debugger.ui.EditorContextDispatcher::access$600 (5 bytes)
Event: 498565.014 Thread 0x000000001847c800 nmethod 36136 0x000000000b075250 code [0x000000000b0753a0, 0x000000000b075490]
Event: 498565.028 Thread 0x0000000018474000 nmethod 36135 0x0000000004bff710 code [0x0000000004bff840, 0x0000000004bff8f8]

GC Heap History (10 events):
Event: 498470.662 GC heap before
{Heap before GC invocations=1530 (full 9):
 PSYoungGen      total 74240K, used 74234K [0x00000000eab00000, 0x00000000f2900000, 0x0000000100000000)
  eden space 71168K, 100% used [0x00000000eab00000,0x00000000ef080000,0x00000000ef080000)
  from space 3072K, 99% used [0x00000000f2600000,0x00000000f28fe830,0x00000000f2900000)
  to   space 4096K, 0% used [0x00000000f2100000,0x00000000f2100000,0x00000000f2500000)
 ParOldGen       total 236544K, used 209917K [0x00000000c0000000, 0x00000000ce700000, 0x00000000eab00000)
  object space 236544K, 88% used [0x00000000c0000000,0x00000000cccff6d8,0x00000000ce700000)
 Metaspace       used 129750K, capacity 144351K, committed 144768K, reserved 1175552K
  class space    used 14998K, capacity 19018K, committed 19072K, reserved 1048576K
Event: 498470.820 GC heap after
Heap after GC invocations=1530 (full 9):
 PSYoungGen      total 81920K, used 3290K [0x00000000eab00000, 0x00000000f2680000, 0x0000000100000000)
  eden space 78336K, 0% used [0x00000000eab00000,0x00000000eab00000,0x00000000ef780000)
  from space 3584K, 91% used [0x00000000f2100000,0x00000000f2436830,0x00000000f2480000)
  to   space 2048K, 0% used [0x00000000f2480000,0x00000000f2480000,0x00000000f2680000)
 ParOldGen       total 236544K, used 209917K [0x00000000c0000000, 0x00000000ce700000, 0x00000000eab00000)
  object space 236544K, 88% used [0x00000000c0000000,0x00000000cccff6d8,0x00000000ce700000)
 Metaspace       used 129750K, capacity 144351K, committed 144768K, reserved 1175552K
  class space    used 14998K, capacity 19018K, committed 19072K, reserved 1048576K
}
Event: 498486.270 GC heap before
{Heap before GC invocations=1531 (full 9):
 PSYoungGen      total 81920K, used 81626K [0x00000000eab00000, 0x00000000f2680000, 0x0000000100000000)
  eden space 78336K, 100% used [0x00000000eab00000,0x00000000ef780000,0x00000000ef780000)
  from space 3584K, 91% used [0x00000000f2100000,0x00000000f2436830,0x00000000f2480000)
  to   space 2048K, 0% used [0x00000000f2480000,0x00000000f2480000,0x00000000f2680000)
 ParOldGen       total 236544K, used 209917K [0x00000000c0000000, 0x00000000ce700000, 0x00000000eab00000)
  object space 236544K, 88% used [0x00000000c0000000,0x00000000cccff6d8,0x00000000ce700000)
 Metaspace       used 129761K, capacity 144357K, committed 144768K, reserved 1175552K
  class space    used 14998K, capacity 19019K, committed 19072K, reserved 1048576K
Event: 498486.345 GC heap after
Heap after GC invocations=1531 (full 9):
 PSYoungGen      total 88064K, used 2048K [0x00000000eab00000, 0x00000000f2680000, 0x0000000100000000)
  eden space 86016K, 0% used [0x00000000eab00000,0x00000000eab00000,0x00000000eff00000)
  from space 2048K, 100% used [0x00000000f2480000,0x00000000f2680000,0x00000000f2680000)
  to   space 5632K, 0% used [0x00000000f1b80000,0x00000000f1b80000,0x00000000f2100000)
 ParOldGen       total 236544K, used 212453K [0x00000000c0000000, 0x00000000ce700000, 0x00000000eab00000)
  object space 236544K, 89% used [0x00000000c0000000,0x00000000ccf797e0,0x00000000ce700000)
 Metaspace       used 129761K, capacity 144357K, committed 144768K, reserved 1175552K
  class space    used 14998K, capacity 19019K, committed 19072K, reserved 1048576K
}
Event: 498515.692 GC heap before
{Heap before GC invocations=1532 (full 9):
 PSYoungGen      total 88064K, used 88064K [0x00000000eab00000, 0x00000000f2680000, 0x0000000100000000)
  eden space 86016K, 100% used [0x00000000eab00000,0x00000000eff00000,0x00000000eff00000)
  from space 2048K, 100% used [0x00000000f2480000,0x00000000f2680000,0x00000000f2680000)
  to   space 5632K, 0% used [0x00000000f1b80000,0x00000000f1b80000,0x00000000f2100000)
 ParOldGen       total 236544K, used 212453K [0x00000000c0000000, 0x00000000ce700000, 0x00000000eab00000)
  object space 236544K, 89% used [0x00000000c0000000,0x00000000ccf797e0,0x00000000ce700000)
 Metaspace       used 129766K, capacity 144357K, committed 144768K, reserved 1175552K
  class space    used 14998K, capacity 19019K, committed 19072K, reserved 1048576K
Event: 498516.361 GC heap after
Heap after GC invocations=1532 (full 9):
 PSYoungGen      total 100352K, used 4000K [0x00000000eab00000, 0x00000000f2500000, 0x0000000100000000)
  eden space 96256K, 0% used [0x00000000eab00000,0x00000000eab00000,0x00000000f0900000)
  from space 4096K, 97% used [0x00000000f1b80000,0x00000000f1f68388,0x00000000f1f80000)
  to   space 5632K, 0% used [0x00000000f1f80000,0x00000000f1f80000,0x00000000f2500000)
 ParOldGen       total 236544K, used 212453K [0x00000000c0000000, 0x00000000ce700000, 0x00000000eab00000)
  object space 236544K, 89% used [0x00000000c0000000,0x00000000ccf797e0,0x00000000ce700000)
 Metaspace       used 129766K, capacity 144357K, committed 144768K, reserved 1175552K
  class space    used 14998K, capacity 19019K, committed 19072K, reserved 1048576K
}
Event: 498531.879 GC heap before
{Heap before GC invocations=1533 (full 9):
 PSYoungGen      total 100352K, used 100256K [0x00000000eab00000, 0x00000000f2500000, 0x0000000100000000)
  eden space 96256K, 100% used [0x00000000eab00000,0x00000000f0900000,0x00000000f0900000)
  from space 4096K, 97% used [0x00000000f1b80000,0x00000000f1f68388,0x00000000f1f80000)
  to   space 5632K, 0% used [0x00000000f1f80000,0x00000000f1f80000,0x00000000f2500000)
 ParOldGen       total 236544K, used 212453K [0x00000000c0000000, 0x00000000ce700000, 0x00000000eab00000)
  object space 236544K, 89% used [0x00000000c0000000,0x00000000ccf797e0,0x00000000ce700000)
 Metaspace       used 129786K, capacity 144357K, committed 144768K, reserved 1175552K
  class space    used 15001K, capacity 19019K, committed 19072K, reserved 1048576K
Event: 498531.975 GC heap after
Heap after GC invocations=1533 (full 9):
 PSYoungGen      total 113152K, used 5457K [0x00000000eab00000, 0x00000000f2500000, 0x0000000100000000)
  eden space 107520K, 0% used [0x00000000eab00000,0x00000000eab00000,0x00000000f1400000)
  from space 5632K, 96% used [0x00000000f1f80000,0x00000000f24d4708,0x00000000f2500000)
  to   space 6656K, 0% used [0x00000000f1800000,0x00000000f1800000,0x00000000f1e80000)
 ParOldGen       total 236544K, used 212461K [0x00000000c0000000, 0x00000000ce700000, 0x00000000eab00000)
  object space 236544K, 89% used [0x00000000c0000000,0x00000000ccf7b7e0,0x00000000ce700000)
 Metaspace       used 129786K, capacity 144357K, committed 144768K, reserved 1175552K
  class space    used 15001K, capacity 19019K, committed 19072K, reserved 1048576K
}
Event: 498562.230 GC heap before
{Heap before GC invocations=1534 (full 9):
 PSYoungGen      total 113152K, used 112977K [0x00000000eab00000, 0x00000000f2500000, 0x0000000100000000)
  eden space 107520K, 100% used [0x00000000eab00000,0x00000000f1400000,0x00000000f1400000)
  from space 5632K, 96% used [0x00000000f1f80000,0x00000000f24d4708,0x00000000f2500000)
  to   space 6656K, 0% used [0x00000000f1800000,0x00000000f1800000,0x00000000f1e80000)
 ParOldGen       total 236544K, used 212461K [0x00000000c0000000, 0x00000000ce700000, 0x00000000eab00000)
  object space 236544K, 89% used [0x00000000c0000000,0x00000000ccf7b7e0,0x00000000ce700000)
 Metaspace       used 129795K, capacity 144363K, committed 144768K, reserved 1175552K
  class space    used 15002K, capacity 19020K, committed 19072K, reserved 1048576K
Event: 498562.668 GC heap after
Heap after GC invocations=1534 (full 9):
 PSYoungGen      total 118272K, used 5351K [0x00000000eab00000, 0x00000000f2f80000, 0x0000000100000000)
  eden space 111616K, 0% used [0x00000000eab00000,0x00000000eab00000,0x00000000f1800000)
  from space 6656K, 80% used [0x00000000f1800000,0x00000000f1d39d90,0x00000000f1e80000)
  to   space 7680K, 0% used [0x00000000f2800000,0x00000000f2800000,0x00000000f2f80000)
 ParOldGen       total 236544K, used 212533K [0x00000000c0000000, 0x00000000ce700000, 0x00000000eab00000)
  object space 236544K, 89% used [0x00000000c0000000,0x00000000ccf8d7e0,0x00000000ce700000)
 Metaspace       used 129795K, capacity 144363K, committed 144768K, reserved 1175552K
  class space    used 15002K, capacity 19020K, committed 19072K, reserved 1048576K
}

Deoptimization events (10 events):
Event: 498359.774 Thread 0x0000000019988800 Uncommon trap: reason=bimorphic action=maybe_recompile pc=0x000000000aa6b814 method=org.netbeans.modules.javascript2.editor.model.impl.JsObjectImpl.getJSKind()Lorg/netbeans/modules/javascript2/editor/model/JsElement$Kind; @ 97
Event: 498359.819 Thread 0x0000000019988800 Uncommon trap: reason=bimorphic action=maybe_recompile pc=0x000000000aa6b814 method=org.netbeans.modules.javascript2.editor.model.impl.JsObjectImpl.getJSKind()Lorg/netbeans/modules/javascript2/editor/model/JsElement$Kind; @ 97
Event: 498359.819 Thread 0x0000000019988800 Uncommon trap: reason=bimorphic action=maybe_recompile pc=0x000000000aa6b814 method=org.netbeans.modules.javascript2.editor.model.impl.JsObjectImpl.getJSKind()Lorg/netbeans/modules/javascript2/editor/model/JsElement$Kind; @ 97
Event: 498517.506 Thread 0x0000000019988800 Uncommon trap: reason=class_check action=maybe_recompile pc=0x00000000096b9c30 method=org.netbeans.modules.php.editor.model.ModelUtils$2.isAccepted(Lorg/netbeans/modules/php/editor/model/ModelElement;)Z @ 1
Event: 498517.506 Thread 0x0000000019988800 Uncommon trap: reason=class_check action=maybe_recompile pc=0x00000000096b9c30 method=org.netbeans.modules.php.editor.model.ModelUtils$2.isAccepted(Lorg/netbeans/modules/php/editor/model/ModelElement;)Z @ 1
Event: 498517.506 Thread 0x0000000019988800 Uncommon trap: reason=class_check action=maybe_recompile pc=0x00000000096b9c30 method=org.netbeans.modules.php.editor.model.ModelUtils$2.isAccepted(Lorg/netbeans/modules/php/editor/model/ModelElement;)Z @ 1
Event: 498517.506 Thread 0x0000000019988800 Uncommon trap: reason=class_check action=maybe_recompile pc=0x00000000096b9c30 method=org.netbeans.modules.php.editor.model.ModelUtils$2.isAccepted(Lorg/netbeans/modules/php/editor/model/ModelElement;)Z @ 1
Event: 498517.536 Thread 0x0000000019988800 Uncommon trap: reason=unloaded action=reinterpret pc=0x000000000a29ce58 method=org.netbeans.modules.php.editor.verification.AssignVariableSuggestion$IntroduceFixVisitor.visit(Lorg/netbeans/modules/php/editor/parser/astnodes/ExpressionStatement;)V @ 148
Event: 498517.556 Thread 0x0000000019988800 Uncommon trap: reason=unreached action=reinterpret pc=0x0000000006f77428 method=org.netbeans.modules.php.editor.verification.AssignVariableSuggestion$IntroduceFixVisitor.scan(Lorg/netbeans/modules/php/editor/parser/astnodes/ASTNode;)V @ 25
Event: 498517.556 Thread 0x0000000019988800 Uncommon trap: reason=unreached action=reinterpret pc=0x000000000a138d00 method=org.netbeans.modules.php.editor.verification.AssignVariableSuggestion$IntroduceFixVisitor.scan(Lorg/netbeans/modules/php/editor/parser/astnodes/ASTNode;)V @ 25

Internal exceptions (10 events):
Event: 498497.632 Thread 0x0000000028501800 Exception <a 'java/net/ConnectException': Connection refused: connect> (0x00000000ef0d6980) thrown at [D:\re\workspace\8-2-build-windows-amd64-cygwin\jdk8u25\1677\hotspot\src\share\vm\prims\jni.cpp, line 742]
Event: 498504.649 Thread 0x0000000028503800 Exception <a 'java/net/ConnectException': Connection refused: connect> (0x00000000efabf3c0) thrown at [D:\re\workspace\8-2-build-windows-amd64-cygwin\jdk8u25\1677\hotspot\src\share\vm\prims\jni.cpp, line 742]
Event: 498511.651 Thread 0x0000000028503800 Exception <a 'java/net/ConnectException': Connection refused: connect> (0x00000000efd11b48) thrown at [D:\re\workspace\8-2-build-windows-amd64-cygwin\jdk8u25\1677\hotspot\src\share\vm\prims\jni.cpp, line 742]
Event: 498518.669 Thread 0x0000000028501800 Exception <a 'java/net/ConnectException': Connection refused: connect> (0x00000000eb1686b8) thrown at [D:\re\workspace\8-2-build-windows-amd64-cygwin\jdk8u25\1677\hotspot\src\share\vm\prims\jni.cpp, line 742]
Event: 498525.677 Thread 0x0000000028501800 Exception <a 'java/net/ConnectException': Connection refused: connect> (0x00000000ed584838) thrown at [D:\re\workspace\8-2-build-windows-amd64-cygwin\jdk8u25\1677\hotspot\src\share\vm\prims\jni.cpp, line 742]
Event: 498532.727 Thread 0x0000000028503800 Exception <a 'java/net/ConnectException': Connection refused: connect> (0x00000000eb5f89d8) thrown at [D:\re\workspace\8-2-build-windows-amd64-cygwin\jdk8u25\1677\hotspot\src\share\vm\prims\jni.cpp, line 742]
Event: 498539.764 Thread 0x0000000028503800 Exception <a 'java/net/ConnectException': Connection refused: connect> (0x00000000edcc0100) thrown at [D:\re\workspace\8-2-build-windows-amd64-cygwin\jdk8u25\1677\hotspot\src\share\vm\prims\jni.cpp, line 742]
Event: 498546.775 Thread 0x0000000028503800 Exception <a 'java/net/ConnectException': Connection refused: connect> (0x00000000ee42fe08) thrown at [D:\re\workspace\8-2-build-windows-amd64-cygwin\jdk8u25\1677\hotspot\src\share\vm\prims\jni.cpp, line 742]
Event: 498553.781 Thread 0x0000000028503800 Exception <a 'java/net/ConnectException': Connection refused: connect> (0x00000000ee8138b0) thrown at [D:\re\workspace\8-2-build-windows-amd64-cygwin\jdk8u25\1677\hotspot\src\share\vm\prims\jni.cpp, line 742]
Event: 498560.790 Thread 0x0000000028503800 Exception <a 'java/net/ConnectException': Connection refused: connect> (0x00000000f0de3418) thrown at [D:\re\workspace\8-2-build-windows-amd64-cygwin\jdk8u25\1677\hotspot\src\share\vm\prims\jni.cpp, line 742]

Events (10 events):
Event: 498562.220 Executing VM operation: ParallelGCFailedAllocation
Event: 498562.668 Executing VM operation: ParallelGCFailedAllocation done
Event: 498562.668 Executing VM operation: FindDeadlocks
Event: 498562.679 Executing VM operation: FindDeadlocks done
Event: 498564.680 Executing VM operation: FindDeadlocks
Event: 498564.680 Executing VM operation: FindDeadlocks done
Event: 498565.087 Thread 0x000000001c9b5800 Thread added: 0x000000001c9b5800
Event: 498565.087 Executing VM operation: RevokeBias
Event: 498565.087 Executing VM operation: RevokeBias done
Event: 498565.088 Thread 0x000000001c9b5800 Thread exited: 0x000000001c9b5800


Dynamic libraries:
0x0000000000400000 - 0x0000000000580000 	C:\Program Files\NetBeans 8.0\bin\netbeans64.exe
0x0000000076ff0000 - 0x0000000077199000 	C:\Windows\SYSTEM32\ntdll.dll
0x0000000076c10000 - 0x0000000076d2f000 	C:\Windows\system32\kernel32.dll
0x000007fefd750000 - 0x000007fefd7bc000 	C:\Windows\system32\KERNELBASE.dll
0x000007fefee30000 - 0x000007fefef0b000 	C:\Windows\system32\ADVAPI32.dll
0x000007fefeca0000 - 0x000007fefed3f000 	C:\Windows\system32\msvcrt.dll
0x000007fefe7b0000 - 0x000007fefe7cf000 	C:\Windows\SYSTEM32\sechost.dll
0x000007fefe8e0000 - 0x000007fefea0d000 	C:\Windows\system32\RPCRT4.dll
0x000007fefda00000 - 0x000007fefe789000 	C:\Windows\system32\SHELL32.dll
0x000007fefec20000 - 0x000007fefec91000 	C:\Windows\system32\SHLWAPI.dll
0x000007feff030000 - 0x000007feff097000 	C:\Windows\system32\GDI32.dll
0x0000000076b10000 - 0x0000000076c0a000 	C:\Windows\system32\USER32.dll
0x000007fefe870000 - 0x000007fefe87e000 	C:\Windows\system32\LPK.dll
0x000007fefd820000 - 0x000007fefd8e9000 	C:\Windows\system32\USP10.dll
0x000007fefef20000 - 0x000007fefef4e000 	C:\Windows\system32\IMM32.DLL
0x000007fefd8f0000 - 0x000007fefd9f9000 	C:\Windows\system32\MSCTF.dll
0x000007fefea10000 - 0x000007fefec13000 	C:\Windows\system32\ole32.dll
0x0000000063b20000 - 0x0000000063c73000 	C:\Program Files\NetBeans 8.0\platform\lib\nbexec64.dll
0x000007fefba20000 - 0x000007fefba76000 	C:\Windows\system32\uxtheme.dll
0x000007fefb520000 - 0x000007fefb538000 	C:\Windows\system32\dwmapi.dll
0x000007fefc040000 - 0x000007fefc234000 	C:\Windows\WinSxS\amd64_microsoft.windows.common-controls_6595b64144ccf1df_6.0.7601.18837_none_fa3b1e3d17594757\comctl32.dll
0x000007fefd2e0000 - 0x000007fefd2ef000 	C:\Windows\system32\CRYPTBASE.dll
0x000007fefe7d0000 - 0x000007fefe869000 	C:\Windows\system32\CLBCatQ.DLL
0x000007fefef50000 - 0x000007feff027000 	C:\Windows\system32\OLEAUT32.dll
0x000000006f7c0000 - 0x000000007001a000 	C:\Program Files\Java\jdk1.8.0_25\jre\bin\server\jvm.dll
0x000007fef8bc0000 - 0x000007fef8bc9000 	C:\Windows\system32\WSOCK32.dll
0x000007fefede0000 - 0x000007fefee2d000 	C:\Windows\system32\WS2_32.dll
0x000007fefef10000 - 0x000007fefef18000 	C:\Windows\system32\NSI.dll
0x000007fefb410000 - 0x000007fefb44b000 	C:\Windows\system32\WINMM.dll
0x00000000771c0000 - 0x00000000771c7000 	C:\Windows\system32\PSAPI.DLL
0x0000000079000000 - 0x00000000790d2000 	C:\Program Files\Java\jdk1.8.0_25\jre\bin\MSVCR100.dll
0x00000000703f0000 - 0x0000000070430000 	C:\Program Files\Java\jdk1.8.0_25\jre\bin\splashscreen.dll
0x000000005da40000 - 0x000000005da4f000 	C:\Program Files\Java\jdk1.8.0_25\jre\bin\verify.dll
0x0000000050000000 - 0x0000000050028000 	C:\Program Files\Java\jdk1.8.0_25\jre\bin\java.dll
0x000000005da20000 - 0x000000005da36000 	C:\Program Files\Java\jdk1.8.0_25\jre\bin\zip.dll
0x000007fefd450000 - 0x000007fefd45f000 	C:\Windows\system32\profapi.dll
0x000000005d5c0000 - 0x000000005d5da000 	C:\Program Files\Java\jdk1.8.0_25\jre\bin\net.dll
0x000007fefcc80000 - 0x000007fefccd5000 	C:\Windows\system32\mswsock.dll
0x000007fefcc70000 - 0x000007fefcc77000 	C:\Windows\System32\wship6.dll
0x000000005d1f0000 - 0x000000005d201000 	C:\Program Files\Java\jdk1.8.0_25\jre\bin\nio.dll
0x000007fefb2d0000 - 0x000007fefb2f7000 	C:\Windows\system32\IPHLPAPI.DLL
0x000007fefb280000 - 0x000007fefb28b000 	C:\Windows\system32\WINNSI.DLL
0x000007fefaee0000 - 0x000007fefaef1000 	C:\Windows\system32\dhcpcsvc6.DLL
0x000007fefade0000 - 0x000007fefadf8000 	C:\Windows\system32\dhcpcsvc.DLL
0x000000006c330000 - 0x000000006c4c8000 	C:\Program Files\Java\jdk1.8.0_25\jre\bin\awt.dll
0x000007fefcce0000 - 0x000007fefccf8000 	C:\Windows\system32\CRYPTSP.dll
0x000007fefc9e0000 - 0x000007fefca27000 	C:\Windows\system32\rsaenh.dll
0x000007fefc7a0000 - 0x000007fefc7be000 	C:\Windows\system32\USERENV.dll
0x000007fefb720000 - 0x000007fefb735000 	C:\Windows\system32\NLAapi.dll
0x000007fefa8f0000 - 0x000007fefa905000 	C:\Windows\system32\napinsp.dll
0x000007fef6b60000 - 0x000007fef6b79000 	C:\Windows\system32\pnrpnsp.dll
0x000007fefcb00000 - 0x000007fefcb5b000 	C:\Windows\system32\DNSAPI.dll
0x000007fefa5f0000 - 0x000007fefa5fb000 	C:\Windows\System32\winrnr.dll
0x000007fefc680000 - 0x000007fefc687000 	C:\Windows\System32\wshtcpip.dll
0x000007fef7f10000 - 0x000007fef7f18000 	C:\Windows\system32\rasadhlp.dll
0x000007fefb140000 - 0x000007fefb193000 	C:\Windows\System32\fwpuclnt.dll
0x000000005d600000 - 0x000000005d647000 	C:\Program Files\Java\jdk1.8.0_25\jre\bin\fontmanager.dll
0x000000005d540000 - 0x000000005d581000 	C:\Program Files\Java\jdk1.8.0_25\jre\bin\t2k.dll
0x0000000180000000 - 0x0000000180038000 	C:\Users\efatek\AppData\Roaming\NetBeans\8.0\modules\lib\amd64\jnidispatch-410.dll
0x000000005d530000 - 0x000000005d53d000 	C:\Program Files\Java\jdk1.8.0_25\jre\bin\management.dll
0x000007fef9040000 - 0x000007fef90b1000 	C:\Windows\system32\winhttp.dll
0x000007fef8d80000 - 0x000007fef8de4000 	C:\Windows\system32\webio.dll
0x000007fef0070000 - 0x000007fef0110000 	C:\Windows\WinSxS\amd64_microsoft.windows.common-controls_6595b64144ccf1df_5.82.7601.18837_none_a4d981ff711297b6\comctl32.dll
0x000007fefafd0000 - 0x000007fefb131000 	C:\Windows\system32\WindowsCodecs.dll
0x000007fefd390000 - 0x000007fefd3e7000 	C:\Windows\system32\apphelp.dll
0x0000000019760000 - 0x0000000019776000 	C:\Program Files\Common Files\TortoiseOverlays\TortoiseOverlays.dll
0x0000000019790000 - 0x00000000197a0000 	C:\Program Files\TortoiseSVN\bin\TortoiseStub.dll
0x000000006d940000 - 0x000000006d9bb000 	C:\Program Files\TortoiseSVN\bin\TortoiseSVN.dll
0x0000000076d30000 - 0x0000000076e8b000 	C:\Windows\system32\WININET.dll
0x00000000771b0000 - 0x00000000771b3000 	C:\Windows\system32\Normaliz.dll
0x00000000768f0000 - 0x0000000076b02000 	C:\Windows\system32\iertutil.dll
0x0000000076e90000 - 0x0000000076fe7000 	C:\Windows\system32\urlmon.dll
0x000007fefc530000 - 0x000007fefc53c000 	C:\Windows\system32\VERSION.dll
0x000007fef7630000 - 0x000007fef7a1d000 	C:\Program Files\TortoiseSVN\bin\libsvn_tsvn.dll
0x000000006f180000 - 0x000000006f1ab000 	C:\Program Files\TortoiseSVN\bin\libapr_tsvn.dll
0x000000006d790000 - 0x000000006d7d1000 	C:\Program Files\TortoiseSVN\bin\libaprutil_tsvn.dll
0x000007fefe880000 - 0x000007fefe8d2000 	C:\Windows\system32\WLDAP32.dll
0x000007fef8120000 - 0x000007fef8130000 	C:\Program Files\TortoiseSVN\bin\intl3_tsvn.dll
0x000007fef8100000 - 0x000007fef811a000 	C:\Program Files\TortoiseSVN\bin\libsasl.dll
0x000007fefd0f0000 - 0x000007fefd0fb000 	C:\Windows\system32\Secur32.dll
0x000007fefd2b0000 - 0x000007fefd2d5000 	C:\Windows\system32\SSPICLI.DLL
0x000007fefd5a0000 - 0x000007fefd70d000 	C:\Windows\system32\CRYPT32.dll
0x000007fefd4f0000 - 0x000007fefd4ff000 	C:\Windows\system32\MSASN1.dll
0x000000006d5d0000 - 0x000000006d668000 	C:\Windows\system32\MSVCP100.dll
0x00000000276b0000 - 0x0000000027a86000 	C:\Program Files\TortoiseSVN\Languages\TortoiseProc1028.dll
0x000000006d5b0000 - 0x000000006d5cb000 	C:\Program Files\TortoiseGit\bin\TortoiseGitStub.dll
0x000000001ed30000 - 0x000000001edbf000 	C:\Program Files\TortoiseGit\bin\TortoiseGit.dll
0x000007fef7480000 - 0x000007fef7563000 	C:\Program Files\TortoiseGit\bin\libgit2_tgit.dll
0x000007fef80c0000 - 0x000007fef80d8000 	C:\Program Files\TortoiseGit\bin\zlib1_tgit.dll
0x000007fef7260000 - 0x000007fef734f000 	C:\Windows\system32\MSVCR120.dll
0x000007fef6fd0000 - 0x000007fef720f000 	C:\Program Files\TortoiseGit\bin\gitdll.dll
0x000007fef6f20000 - 0x000007fef6fc6000 	C:\Windows\system32\MSVCP120.dll
0x000007fef7240000 - 0x000007fef7251000 	C:\Program Files\TortoiseGit\bin\crshhndl.dll
0x000007fef6ee0000 - 0x000007fef6f15000 	C:\Windows\system32\EhStorShell.dll
0x000007feff120000 - 0x000007feff2f7000 	C:\Windows\system32\SETUPAPI.dll
0x000007fefd7e0000 - 0x000007fefd816000 	C:\Windows\system32\CFGMGR32.dll
0x000007fefd7c0000 - 0x000007fefd7da000 	C:\Windows\system32\DEVOBJ.dll
0x000007fefbac0000 - 0x000007fefbbec000 	C:\Windows\system32\PROPSYS.dll
0x000007fef6dc0000 - 0x000007fef6e40000 	C:\Windows\system32\ntshrui.dll
0x000007fefcf60000 - 0x000007fefcf83000 	C:\Windows\system32\srvcli.dll
0x000007fef80f0000 - 0x000007fef80ff000 	C:\Windows\system32\cscapi.dll
0x000007fefb450000 - 0x000007fefb45b000 	C:\Windows\system32\slc.dll
0x000000006cd90000 - 0x000000006cdba000 	C:\Program Files\Java\jdk1.8.0_25\jre\bin\dcpr.dll
0x000007feef0a0000 - 0x000007feef1bd000 	C:\Windows\system32\OPENGL32.DLL
0x000007fef3670000 - 0x000007fef369d000 	C:\Windows\system32\GLU32.dll
0x000007feeca90000 - 0x000007feecb81000 	C:\Windows\system32\DDRAW.dll
0x000007fef44f0000 - 0x000007fef44f8000 	C:\Windows\system32\DCIMAN32.dll
0x000007fef30f0000 - 0x000007fef310f000 	C:\Windows\system32\atig6pxx.dll
0x00000000680f0000 - 0x0000000069ebc000 	C:\Windows\system32\atio6axx.dll
0x000007feec950000 - 0x000007feeca8f000 	C:\Windows\system32\atiadlxx.dll
0x000007fefc5a0000 - 0x000007fefc5b1000 	C:\Windows\system32\WTSAPI32.dll
0x000007fefd710000 - 0x000007fefd74b000 	C:\Windows\system32\WINTRUST.dll
0x000007fef02c0000 - 0x000007fef02f2000 	C:\Windows\system32\atig6txx.dll
0x000007feee350000 - 0x000007feee40b000 	C:\Windows\SYSTEM32\ime\IMETC10\IMTCTIP.DLL
0x000007feed080000 - 0x000007feed125000 	C:\Windows\system32\ime\shared\imetip.dll
0x000007feecfd0000 - 0x000007feed07f000 	C:\Windows\SYSTEM32\ime\IMETC10\IMTCCORE.DLL
0x000007feeb0c0000 - 0x000007feeb0f8000 	C:\Windows\SYSTEM32\ime\IMETC10\IMTCCFG.DLL
0x000007feeafe0000 - 0x000007feeb0ba000 	C:\Windows\system32\ime\shared\mscand20.dll
0x000007fefc2b0000 - 0x000007fefc2b7000 	C:\Windows\system32\MSIMG32.dll
0x000007fef99e0000 - 0x000007fef9a1b000 	C:\Windows\system32\mlang.dll
0x000007fefd430000 - 0x000007fefd444000 	C:\Windows\system32\RpcRtRemote.dll
0x000007fef3500000 - 0x000007fef3625000 	C:\Windows\system32\dbghelp.dll

VM Arguments:
jvm_args: -Dnetbeans.importclass=org.netbeans.upgrade.AutoUpgrade -Dnetbeans.accept_license_class=org.netbeans.license.AcceptLicense -client -Xss2m -Xms32m -XX:PermSize=32m -Dapple.laf.useScreenMenuBar=true -Dapple.awt.graphics.UseQuartz=true -Dsun.java2d.noddraw=true -Dsun.java2d.dpiaware=true -Dsun.zip.disableMemoryMapping=true -Dfile.encoding=UTF-8 -Xmx1024m -XX:MaxPermSize=384m -Djdk.home=C:\Program Files\Java\jdk1.8.0_25 -Dnetbeans.home=C:\Program Files\NetBeans 8.0\platform -Dnetbeans.user=C:\Users\efatek\AppData\Roaming\NetBeans\8.0 -Dnetbeans.default_userdir_root=C:\Users\efatek\AppData\Roaming\NetBeans -XX:+HeapDumpOnOutOfMemoryError -XX:HeapDumpPath=C:\Users\efatek\AppData\Roaming\NetBeans\8.0\var\log\heapdump.hprof -Dsun.awt.keepWorkingSetOnMinimize=true -Dnetbeans.dirs=C:\Program Files\NetBeans 8.0\nb;C:\Program Files\NetBeans 8.0\ergonomics;C:\Program Files\NetBeans 8.0\ide;C:\Program Files\NetBeans 8.0\extide;C:\Program Files\NetBeans 8.0\java;C:\Program Files\NetBeans 8.0\apisupport;C:\Program Files\NetBeans 8.0\webcommon;C:\Program Files\NetBeans 8.0\websvccommon;C:\Program Files\NetBeans 8.0\enterprise;C:\Program Files\NetBeans 8.0\mobility;C:\Program Files\NetBeans 8.0\profiler;C:\Program Files\NetBeans 8.0\python;C:\Program Files\NetBeans 8.0\php;C:\Program Files\NetBeans 8.0\identity;C:\Program Files\NetBeans 8.0\harness;C:\Program Files\NetBeans 8.0\cnd;C:\Program Files\NetBeans 8.0\dlight;C:\Program Files\NetBeans 8.0\groovy;C:\Program Files\NetBeans 8.0\extra;C:\Program Files\NetBeans 8.0\javacard;C:\Program Files\NetBeans 8.0\javafx exit 
java_command: <unknown>
java_class_path (initial): C:\Users\efatek\AppData\Roaming\NetBeans\8.0\lib\boot.jar;C:\Users\efatek\AppData\Roaming\NetBeans\8.0\lib\jfluid-server-15.jar;C:\Users\efatek\AppData\Roaming\NetBeans\8.0\lib\jfluid-server-cvm.jar;C:\Users\efatek\AppData\Roaming\NetBeans\8.0\lib\jfluid-server.jar;C:\Users\efatek\AppData\Roaming\NetBeans\8.0\lib\org-openide-modules.jar;C:\Users\efatek\AppData\Roaming\NetBeans\8.0\lib\org-openide-util-lookup.jar;C:\Users\efatek\AppData\Roaming\NetBeans\8.0\lib\org-openide-util.jar;C:\Users\efatek\AppData\Roaming\NetBeans\8.0\lib\locale\boot_ja.jar;C:\Users\efatek\AppData\Roaming\NetBeans\8.0\lib\locale\boot_pt_BR.jar;C:\Users\efatek\AppData\Roaming\NetBeans\8.0\lib\locale\boot_ru.jar;C:\Users\efatek\AppData\Roaming\NetBeans\8.0\lib\locale\boot_zh_CN.jar;C:\Users\efatek\AppData\Roaming\NetBeans\8.0\lib\locale\jfluid-server_ja.jar;C:\Users\efatek\AppData\Roaming\NetBeans\8.0\lib\locale\jfluid-server_pt_BR.jar;C:\Users\efatek\AppData\Roaming\NetBeans\8.0\lib\locale\jfluid-server_ru.jar;C:\Users\efatek\AppData\Roaming\NetBeans\8.0\lib\locale\jfluid-server_zh_CN.jar;C:\Users\efatek\AppData\Roaming\NetBeans\8.0\lib\locale\org-openide-modules_ja.jar;C:\Users\efatek\AppData\Roaming\NetBeans\8.0\lib\locale\org-openide-modules_pt_BR.jar;C:\Users\efatek\AppData\Roaming\NetBeans\8.0\lib\locale\org-openide-modules_ru.jar;C:\Users\efatek\AppData\Roaming\NetBeans\8.0\lib\locale\org-openide-modules_zh_CN.jar;C:\Users\efatek\AppData\Roaming\NetBeans\8.0\lib\locale\org-openide-util-lookup_ja.jar;C:\Users\efatek\AppData\Roaming\NetBeans\8.0\lib\locale\org-openide-util-lookup_pt_BR.jar;C:\Users\efatek\AppData\Roaming\NetBeans\8.0\lib\locale\org-openide-util-lookup_ru.jar;C:\Users\efatek\AppData\Roaming\NetBeans\8.0\lib\locale\org-openide-util-lookup_zh_CN.jar;C:\Users\efatek\AppData\Roaming\NetBeans\8.0\lib\locale\org-openide-util_ja.jar;C:\Users\efatek\AppData\Roaming\NetBeans\8.0\lib\locale\org-openide-util_pt_BR.jar;C:\Users\efatek\AppData\Roaming\NetBea
Launcher Type: generic

Environment Variables:
PATH=C:\ProgramData\Oracle\Java\javapath;C:\Windows\system32;C:\Windows;C:\Windows\System32\Wbem;C:\Windows\System32\WindowsPowerShell\v1.0\;C:\Program Files (x86)\ATI Technologies\ATI.ACE\Core-Static;C:\Program Files\TortoiseSVN\bin;C:\Program Files\Microsoft SQL Server\100\DTS\Binn\;C:\Program Files\EmEditor;C:\xampp\php;C:\ProgramData\ComposerSetup\bin;C:\Users\efatek\AppData\Local\GitHub\GitHub;C:\Program Files (x86)\Microsoft SQL Server\100\Tools\Binn\;C:\Program Files\Microsoft SQL Server\100\Tools\Binn\;C:\Program Files\TortoiseGit\bin;C:\Program Files (x86)\Skype\Phone\
USERNAME=efatek
OS=Windows_NT
PROCESSOR_IDENTIFIER=Intel64 Family 6 Model 37 Stepping 5, GenuineIntel



---------------  S Y S T E M  ---------------

OS: Windows 7 , 64 bit Build 7601 Service Pack 1

CPU:total 4 (2 cores per cpu, 2 threads per core) family 6 model 37 stepping 5, cmov, cx8, fxsr, mmx, sse, sse2, sse3, ssse3, sse4.1, sse4.2, popcnt, aes, clmul, ht, tsc, tscinvbit

Memory: 4k page, physical 8313912k(898724k free), swap 16625984k(3641140k free)

vm_info: Java HotSpot(TM) 64-Bit Server VM (25.25-b02) for windows-amd64 JRE (1.8.0_25-b18), built on Oct  7 2014 14:25:37 by "java_re" with MS VC++ 10.0 (VS2010)

time: Mon Jan 11 11:38:55 2016
elapsed time: 498565 seconds (5d 18h 29m 25s)

