{"quizlist":[
  
	{
		"question":"精心規劃一個浪漫驚喜",
		"option":["肯定言詞", "精心時刻", "愛的禮物", "服務行動", "身體接觸"],
		"answer":"精心時刻"
	},
	{
		"question":"睡前，彼此按摩舒壓",
		"option":["肯定言詞", "精心時刻", "愛的禮物", "服務行動", "身體接觸"],
		"answer":"身體接觸"
	},
	{
		"question":"留給對方一張-愛的字條",
		"option":["肯定言詞", "精心時刻", "愛的禮物", "服務行動", "身體接觸"],
		"answer":"精心時刻"
	},
	{
		"question":"生日或紀念日時，送上禮物",
		"option":["肯定言詞", "精心時刻", "愛的禮物", "服務行動", "身體接觸"],
		"answer":"愛的禮物"
	},
	{
		"question":"每天一句：感謝與鼓勵",
		"option":["肯定言詞", "精心時刻", "愛的禮物", "服務行動", "身體接觸"],
		"answer":"肯定言詞"
	},
	{
		"question":"與對方分享令人愉悅的事",
		"option":["肯定言詞", "精心時刻", "愛的禮物", "服務行動", "身體接觸"],
		"answer":"精心時刻"
	},
	{
		"question":"特別為對方，準備一份他想要很久的禮物",
		"option":["肯定言詞", "精心時刻", "愛的禮物", "服務行動", "身體接觸"],
		"answer":"愛的禮物"
	},
	{
		"question":"一起散步聊天",
		"option":["肯定言詞", "精心時刻", "愛的禮物", "服務行動", "身體接觸"],
		"answer":"精心時刻"
	},
	{
		"question":"溫暖擁抱",
		"option":["肯定言詞", "精心時刻", "愛的禮物", "服務行動", "身體接觸"],
		"answer":"身體接觸"
	},
	{
		"question":"傳簡訊，作彼此的啦啦隊",
		"option":["肯定言詞", "精心時刻", "愛的禮物", "服務行動", "身體接觸"],
		"answer":"肯定言詞"
	},
	{
		"question":"用心看見對方的優點，並且給予稱讚",
		"option":["肯定言詞", "精心時刻", "愛的禮物", "服務行動", "身體接觸"],
		"answer":"肯定言詞"
	},
	{
		"question":"親手做卡片或蛋糕表達愛意",
		"option":["肯定言詞", "精心時刻", "愛的禮物", "服務行動", "身體接觸"],
		"answer":"愛的禮物"
	},
	{
		"question":"每天談談今日生活、明日計畫",
		"option":["肯定言詞", "精心時刻", "愛的禮物", "服務行動", "身體接觸"],
		"answer":"精心時刻"
	},
	{
		"question":"下班買一份對方喜愛的食物",
		"option":["肯定言詞", "精心時刻", "愛的禮物", "服務行動", "身體接觸"],
		"answer":"愛的禮物"
	},
	{
		"question":"對最愛的人說：謝謝和我愛你",
		"option":["肯定言詞", "精心時刻", "愛的禮物", "服務行動", "身體接觸"],
		"answer":"肯定言詞"
	},
	{
		"question":"假日洗被單，一起做家事",
		"option":["肯定言詞", "精心時刻", "愛的禮物", "服務行動", "身體接觸"],
		"answer":"服務行動"
	},
	{
		"question":"散步時，貼心牽手",
		"option":["肯定言詞", "精心時刻", "愛的禮物", "服務行動", "身體接觸"],
		"answer":"身體接觸"
	},
	{
		"question":"大雨滂沱，接對方下班",
		"option":["肯定言詞", "精心時刻", "愛的禮物", "服務行動", "身體接觸"],
		"answer":"服務行動"
	},
	{
		"question":"幫他搥搥背，傾聽對方近日的煩惱",
		"option":["肯定言詞", "精心時刻", "愛的禮物", "服務行動", "身體接觸"],
		"answer":"服務行動"
	},
	{
		"question":"冬夜中，送上一碗熱騰騰紅豆湯",
		"option":["肯定言詞", "精心時刻", "愛的禮物", "服務行動", "身體接觸"],
		"answer":"服務行動"
	},
	{
		"question":"拍下生活中感動與快樂的照片",
		"option":["肯定言詞", "精心時刻", "愛的禮物", "服務行動", "身體接觸"],
		"answer":"精心時刻"
	},
	{
		"question":"到我們最愛的餐廳吃晚餐",
		"option":["肯定言詞", "精心時刻", "愛的禮物", "服務行動", "身體接觸"],
		"answer":"精心時刻"
	},
	{
		"question":"一同回到最初認識的地方，回想最初的甜蜜時光",
		"option":["肯定言詞", "精心時刻", "愛的禮物", "服務行動", "身體接觸"],
		"answer":"精心時刻"
	},
	{
		"question":"燒一道好菜，兩人共享",
		"option":["肯定言詞", "精心時刻", "愛的禮物", "服務行動", "身體接觸"],
		"answer":"服務行動"
	},
	{
		"question":"一個甜蜜Kiss",
		"option":["肯定言詞", "精心時刻", "愛的禮物", "服務行動", "身體接觸"],
		"answer":"身體接觸"
	}

]
}